<svg width="128" height="111" viewBox="0 0 128 111" fill="none" xmlns="http://www.w3.org/2000/svg">
<path d="M90.7427 27.7427C85.6435 22.6435 79.4996 19.2258 73 17.4895C62.4557 14.6727 50.9751 16.2812 41.5 22.3149M23.5609 50C22.6094 56.5275 23.2895 63.247 25.6012 69.5M54.5 94.478C64.4818 96.5924 75.1222 94.8201 84 89.1613M96.4748 76.5C99.5233 71.5553 101.384 66.0855 102.056 60.5" stroke="#D9E5FF" stroke-width="3" stroke-linecap="round"/>
<circle cx="62.9722" cy="49.25" r="6.25" stroke="#FCD535" stroke-width="3.5"/>
<path d="M51.7222 68V68C51.7222 63.8579 55.0801 60.5 59.2222 60.5H66.7222C70.8643 60.5 74.2222 63.8579 74.2222 68V68" stroke="#FCD535" stroke-width="3.5" stroke-linecap="round"/>
<circle cx="35.6111" cy="76.4506" r="6.45061" stroke="#FCD535" stroke-width="3.00068"/>
<path d="M24 95.8025V95.8025C24 91.5274 27.4656 88.0617 31.7407 88.0617H39.4815C43.7566 88.0617 47.2222 91.5274 47.2222 95.8025V95.8025" stroke="#FCD535" stroke-width="3.00068" stroke-linecap="round"/>
<circle cx="28.6111" cy="24.4506" r="6.45061" stroke="#FCD535" stroke-width="3.00068"/>
<path d="M17 43.8025V43.8025C17 39.5274 20.4656 36.0617 24.7407 36.0617H32.4815C36.7566 36.0617 40.2222 39.5274 40.2222 43.8025V43.8025" stroke="#FCD535" stroke-width="3.00068" stroke-linecap="round"/>
<circle cx="101.611" cy="39.4506" r="6.45061" stroke="#FCD535" stroke-width="3.00068"/>
<path d="M90 58.8025V58.8025C90 54.5274 93.4656 51.0617 97.7407 51.0617H105.481C109.757 51.0617 113.222 54.5274 113.222 58.8025V58.8025" stroke="#FCD535" stroke-width="3.00068" stroke-linecap="round"/>
<path fill-rule="evenodd" clip-rule="evenodd" d="M84.3356 34.4071C72.5464 22.6179 53.4323 22.6179 41.6431 34.4071C29.8539 46.1963 29.8539 65.3104 41.6431 77.0996C52.5693 88.0258 69.7873 88.8257 81.6347 79.499L98.2621 96.1265C99.6935 97.5579 102.014 97.5579 103.446 96.1265C104.877 94.6951 104.877 92.3744 103.446 90.9431L86.808 74.3056C96.0574 62.4613 95.2332 45.3048 84.3356 34.4071ZM46.5929 39.3569C55.6484 30.3014 70.3303 30.3014 79.3858 39.3569C88.4414 48.4124 88.4414 63.0943 79.3858 72.1499C70.3303 81.2054 55.6484 81.2054 46.5929 72.1499C37.5373 63.0943 37.5373 48.4124 46.5929 39.3569Z" fill="#FCD535"/>
</svg>
